<?xml version="1.0" encoding="UTF-8"?>
<OAI-PMH xmlns:xsi="http://www.w3.org/2001/XMLSchema-instance" xmlns:xsd="http://www.w3.org/2001/XMLSchema" xsi:schemaLocation="http://www.openarchives.org/OAI/2.0/ http://www.openarchives.org/OAI/2.0/OAI-PMH.xsd" xmlns="http://www.openarchives.org/OAI/2.0/">
  <responseDate>2013-05-06T06:39:58.1167565-04:00</responseDate>
  <request verb="ListRecords" metadataPrefix="ivo_vor" from="1990-01-01" set="ivo_managed">http://vao.stsci.edu/directory/oai.aspx</request>
  <ListRecords>
    <record>
      <header>
        <identifier>ivo://archive.stsci.edu</identifier>
        <datestamp>2005-04-18T16:06:17Z</datestamp>
        <setSpec>ivo_managed</setSpec>
      </header>
      <metadata>
        <ri:Resource xmlns="" xmlns:ri="http://www.ivoa.net/xml/RegistryInterface/v1.0" xmlns:vr="http://www.ivoa.net/xml/VOResource/v1.0" xmlns:vg="http://www.ivoa.net/xml/VORegistry/v1.0" xmlns:xsi="http://www.w3.org/2001/XMLSchema-instance" xsi:type="vg:Authority" status="active" created="2004-12-09T11:16:32Z" updated="2005-04-18T16:06:17Z">
          <validationLevel validatedBy="ivo://archive.stsci.edu/nvoregistry">2</validationLevel>
          <title>Space Telescope Science Institute Archive</title>
          <shortName>STScI ARC</shortName>
          <identifier>ivo://archive.stsci.edu</identifier>
          <curation>
            <publisher>         Space Telescope Science Institute      </publisher>
            <creator>
              <name>Gretchen Greene</name>
            </creator>
            <contact>
              <name>Gretchen Greene</name>
              <email>greene@stsci.edu</email>
            </contact>
          </curation>
          <content>
            <subject>Hubble Space Telescope</subject>
            <subject>HST Archive</subject>
            <description>         The naming authority for resources managed within the archive at Space         Telescope Science Institute.      </description>
            <referenceURL>http://www.stsci.edu/</referenceURL>
            <type>Organisation</type>
            <contentLevel>General</contentLevel>
          </content>
          <managingOrg>Space Telescope Science Institute</managingOrg>
        </ri:Resource>
      </metadata>
    </record>
    <record>
      <header status="deleted">
        <identifier>ivo://archive.stsci.edu/gsc/gsc1</identifier>
        <datestamp>2005-04-08T15:17:23Z</datestamp>
        <setSpec>ivo_managed</setSpec>
      </header>
      <metadata>
        <ri:Resource xmlns="" xmlns:ri="http://www.ivoa.net/xml/RegistryInterface/v1.0" xmlns:vr="http://www.ivoa.net/xml/VOResource/v1.0" xmlns:vs="http://www.ivoa.net/xml/VODataService/v1.0" xmlns:stc="http://www.ivoa.net/xml/STC/stc-v1.30.xsd" xmlns:xlink="http://www.w3.org/1999/xlink" xmlns:cs="http://www.ivoa.net/xml/ConeSearch/v1.0" xmlns:xsi="http://www.w3.org/2001/XMLSchema-instance" xsi:type="vs:CatalogService" status="deleted" created="2004-11-22T12:22:44Z" updated="2005-04-08T15:17:23Z">
          <validationLevel validatedBy="ivo://archive.stsci.edu/nvoregistry">2</validationLevel>
          <title>Guide Star Catalog 1</title>
          <shortName>GSC1</shortName>
          <identifier>ivo://archive.stsci.edu/gsc/gsc1</identifier>
          <curation>
            <publisher>         Space Telescope Science      </publisher>
            <creator>
              <name>Space Telescope Science Institute Catalogs and Surveys Branch</name>
            </creator>
            <version>1</version>
            <contact>
              <name>Gretchen Greene</name>
              <email>greene@stsci.edu</email>
            </contact>
          </curation>
          <content>
            <subject>Surveys</subject>
            <subject>Stars</subject>
            <description>         The Guide Star Catalog I (GSC I) is an all-sky optical catalog of         positions and magnitudes of approximately 19 million stars and other         objects in the 6th to 15th magnitude range. GSC I catalog is used for         the control and target acquistion of the Hubble Space Telesope.      </description>
            <referenceURL>http://www-gsss.stsci.edu/gsc/gsc1/GSC1home.htm</referenceURL>
            <type>Catalog</type>
            <contentLevel>Research</contentLevel>
          </content>
          <capability xsi:type="cs:ConeSearch" standardID="ivo://ivoa.net/std/ConeSearch">
            <validationLevel validatedBy="ivo://archive.stsci.edu/nvoregistry">2</validationLevel>
            <interface xsi:type="vs:ParamHTTP" role="std">
              <accessURL use="base">http://chart.stsci.edu/GSCVO/GSC1VO.jsp?</accessURL>
              <queryType>GET</queryType>
            </interface>
            <maxSR>1</maxSR>
            <maxRecords>10000</maxRecords>
            <verbosity>false</verbosity>
            <testQuery>
              <ra>102.2</ra>
              <dec>28.5</dec>
              <sr>0.5</sr>
            </testQuery>
          </capability>
          <coverage>
            <stc:STCResourceProfile xmlns="http://www.ivoa.net/xml/STC/stc-v1.30.xsd">
              <AstroCoordSystem xlink:type="simple" xlink:href="ivo://STClib/CoordSys#UTC-FK5-TOPO" id="archive.stsci.edu_gsc_gsc1UTC-FK5-TOPO"/>
              <AstroCoords coord_system_id="archive.stsci.edu_gsc_gsc1UTC-FK5-TOPO">
                <Position1D>
                  <!-- regionOfRegard -->
                  <Size pos_unit="arcsec">0.000500000023748726</Size>
                </Position1D>
              </AstroCoords>
            </stc:STCResourceProfile>
            <waveband>Optical</waveband>
          </coverage>
        </ri:Resource>
      </metadata>
    </record>
    <record>
      <header status="deleted">
        <identifier>ivo://archive.stsci.edu/gsc/gsc2.2</identifier>
        <datestamp>2005-04-08T15:17:23Z</datestamp>
        <setSpec>ivo_managed</setSpec>
      </header>
    </record>
    <record>
      <header>
        <identifier>ivo://gcp/iopw</identifier>
        <datestamp>2005-05-15T07:30:19Z</datestamp>
        <setSpec>ivo_managed</setSpec>
      </header>
      <metadata>
        <ri:Resource xmlns="" xmlns:ri="http://www.ivoa.net/xml/RegistryInterface/v1.0" xmlns:vr="http://www.ivoa.net/xml/VOResource/v1.0" xmlns:xsi="http://www.w3.org/2001/XMLSchema-instance" xsi:type="vr:Organisation" status="active" created="2005-05-15T06:56:41Z" updated="2005-05-15T07:30:19Z">
          <validationLevel validatedBy="ivo://archive.stsci.edu/nvoregistry">2</validationLevel>
          <title>Grupo de Ciencias Planetarias</title>
          <shortName>GCP</shortName>
          <identifier>ivo://gcp/iopw</identifier>
          <curation>
            <publisher>
            </publisher>
            <contact>
              <name>Aleksander Morgado</name>
              <email>aleksander_morgado@hotmail.com</email>
            </contact>
          </curation>
          <content>
            <subject>NOT PROVIDED</subject>
            <description>         Grupo de Ciencias Planetarias mantains the archive of planetary images         in the framework of the International Outer Planets Watch      </description>
            <referenceURL>http://www.ajax.ehu.es</referenceURL>
          </content>
        </ri:Resource>
      </metadata>
    </record>
    <resumptionToken expirationDate="2013-05-06T16:39:59.021847Z" completeListSize="881" cursor="0">ivo_managed!!!ivo_vor!1</resumptionToken>
  </ListRecords>
</OAI-PMH>
